<svg xmlns="http://www.w3.org/2000/svg" xmlns:xlink="http://www.w3.org/1999/xlink" width="24" height="24" viewBox="0 0 24 24">
    <defs>
        <path id="bv1nswswva" d="M15.41 7.41L14 6 8 12 14 18 15.41 16.59 10.83 12z"/>
    </defs>
    <g fill="none" fill-rule="evenodd">
        <mask id="aocb7gwy9b" fill="#fff">
            <use xlink:href="#bv1nswswva"/>
        </mask>
        <g fill="#FFF" mask="url(#aocb7gwy9b)">
            <path d="M0 0H24V24H0z"/>
        </g>
    </g>
</svg>
